{
"meta":{"test_sets":["test"],"test_metrics":[{"best_value":"Min","name":"MultiClass"},{"best_value":"Max","name":"AUC:type=Mu"},{"best_value":"Max","name":"Accuracy"},{"best_value":"Max","name":"Recall:class=0"},{"best_value":"Max","name":"Recall:class=1"},{"best_value":"Max","name":"Recall:class=2"},{"best_value":"Max","name":"Recall:class=3"}],"learn_metrics":[{"best_value":"Min","name":"MultiClass"},{"best_value":"Max","name":"Accuracy"},{"best_value":"Max","name":"Recall:class=0"},{"best_value":"Max","name":"Recall:class=1"},{"best_value":"Max","name":"Recall:class=2"},{"best_value":"Max","name":"Recall:class=3"}],"launch_mode":"Train","parameters":"","iteration_count":50,"learn_sets":["learn"],"name":"experiment"},
"iterations":[
{"learn":[0.5725668604,0.8831927101,0.9421618762,0.005970149254,0.9698013782,0],"iteration":0,"passed_time":0.02582900366,"remaining_time":1.265621179,"test":[0.5625200696,0.4133327822,0.8900698451,0.9542197452,0,0.9691470054,1]},
{"learn":[0.4422312951,0.8830914614,0.9421618762,0.00447761194,0.9698013782,0],"iteration":1,"passed_time":0.04497144533,"remaining_time":1.079314688,"test":[0.4302107136,0.4143341674,0.8900698451,0.9542197452,0,0.9691470054,1]},
{"learn":[0.3779989476,0.8836989538,0.9432639746,0.002985074627,0.9689906769,0],"iteration":2,"passed_time":0.06402068394,"remaining_time":1.002990715,"test":[0.3631421694,0.4192668987,0.8900698451,0.9546178344,0,0.9673321234,1]},
{"learn":[0.3411103672,0.8839689504,0.9423822959,0.02039800995,0.9675719497,0],"iteration":3,"passed_time":0.0821745111,"remaining_time":0.9450068776,"test":[0.326657524,0.4184820458,0.8900698451,0.9542197452,0.008695652174,0.9655172414,1]},
{"learn":[0.3208777574,0.8843064462,0.9437929818,0.009950248756,0.9673692744,0],"iteration":4,"passed_time":0.1013631583,"remaining_time":0.9122684248,"test":[0.3049895554,0.420633148,0.8915882174,0.9566082803,0.004347826087,0.9655172414,1]},
{"learn":[0.3100456266,0.8844414445,0.9438811497,0.01044776119,0.9675719497,0],"iteration":5,"passed_time":0.1197021006,"remaining_time":0.8778154047,"test":[0.2937101073,0.422937374,0.8928029153,0.9585987261,0,0.9655172414,1]},
{"learn":[0.3033268921,0.884643942,0.9446305766,0.004975124378,0.9675719497,0],"iteration":6,"passed_time":0.1382920306,"remaining_time":0.8495081883,"test":[0.2877398998,0.4222827519,0.8928029153,0.9589968153,0,0.9637023593,1]},
{"learn":[0.2984577399,0.8849139386,0.9442779051,0.01393034826,0.9671665991,0],"iteration":7,"passed_time":0.1565238547,"remaining_time":0.821750237,"test":[0.2840056653,0.4218490254,0.8918918919,0.9574044586,0.004347826087,0.9637023593,1]},
{"learn":[0.2959827077,0.8848464394,0.9447628284,0.01343283582,0.9647344953,0],"iteration":8,"passed_time":0.1734912448,"remaining_time":0.7903490041,"test":[0.2827007686,0.4220489437,0.8924992408,0.9582006369,0.004347826087,0.9637023593,1]},
{"learn":[0.2935265155,0.8847451907,0.9449832481,0.01144278607,0.9639237941,0],"iteration":9,"passed_time":0.1928180937,"remaining_time":0.7712723747,"test":[0.2800099232,0.4235398837,0.8928029153,0.9585987261,0.004347826087,0.9637023593,1]},
{"learn":[0.2924822788,0.8848126898,0.945071416,0.01094527363,0.9641264694,0],"iteration":10,"passed_time":0.2132876729,"remaining_time":0.7562017494,"test":[0.2799370395,0.4222311767,0.8934102642,0.9593949045,0.004347826087,0.9637023593,1]},
{"learn":[0.2918931602,0.8849139386,0.9452477517,0.01094527363,0.9639237941,0],"iteration":11,"passed_time":0.2284687419,"remaining_time":0.7234843493,"test":[0.2796245529,0.4224643233,0.8931065897,0.9593949045,0.004347826087,0.9618874773,1]},
{"learn":[0.2913029642,0.8850489369,0.9454240875,0.01144278607,0.9637211188,0],"iteration":12,"passed_time":0.2478421303,"remaining_time":0.7053968324,"test":[0.2793539923,0.4234614156,0.8931065897,0.9593949045,0.004347826087,0.9618874773,1]},
{"learn":[0.2906686853,0.8849476882,0.9456885911,0.01194029851,0.9616943656,0],"iteration":13,"passed_time":0.2672047683,"remaining_time":0.6870979755,"test":[0.2792559179,0.4243955644,0.8928029153,0.9597929936,0.004347826087,0.9582577132,1]},
{"learn":[0.2886548997,0.8848464394,0.9451595838,0.01293532338,0.9631130928,0],"iteration":14,"passed_time":0.2847860428,"remaining_time":0.6645007666,"test":[0.2780222615,0.4249252163,0.8928029153,0.9593949045,0.004347826087,0.9600725953,1]},
{"learn":[0.2881333149,0.8849139386,0.9454240875,0.01293532338,0.9623023916,0],"iteration":15,"passed_time":0.3046793206,"remaining_time":0.6474435563,"test":[0.2782414534,0.4253461632,0.8924992408,0.9593949045,0.004347826087,0.9582577132,1]},
{"learn":[0.2874452409,0.8850489369,0.9458649268,0.01542288557,0.9600729631,0],"iteration":16,"passed_time":0.3229733073,"remaining_time":0.6269481848,"test":[0.2781203418,0.4259401117,0.8924992408,0.9593949045,0.004347826087,0.9582577132,1]},
{"learn":[0.2863806,0.8852851839,0.9466143537,0.01741293532,0.9572355087,0],"iteration":17,"passed_time":0.3416798562,"remaining_time":0.6074308554,"test":[0.2775191884,0.4262616675,0.8931065897,0.9601910828,0.004347826087,0.9582577132,1]},
{"learn":[0.2851214034,0.8858251772,0.9466584377,0.02039800995,0.9590595865,0],"iteration":18,"passed_time":0.358897983,"remaining_time":0.5855703933,"test":[0.2770187065,0.4270818237,0.8931065897,0.9601910828,0.004347826087,0.9582577132,1]},
{"learn":[0.2845674774,0.8859264259,0.9471874449,0.02139303483,0.9568301581,0],"iteration":19,"passed_time":0.3785340235,"remaining_time":0.5678010352,"test":[0.2768222324,0.4268296273,0.8934102642,0.960589172,0.004347826087,0.9582577132,1]},
{"learn":[0.2837440646,0.8858251772,0.9470111092,0.02139303483,0.9570328334,0],"iteration":20,"passed_time":0.3963319115,"remaining_time":0.5473154968,"test":[0.2766485748,0.4261486379,0.8937139387,0.9613853503,0.01304347826,0.9528130672,1]},
{"learn":[0.2833464089,0.8861289234,0.9470111092,0.02338308458,0.95804621,0],"iteration":21,"passed_time":0.4180850906,"remaining_time":0.5321082971,"test":[0.2767967061,0.4256054125,0.8937139387,0.9609872611,0.01304347826,0.9546279492,1]},
{"learn":[0.2829316998,0.8863651704,0.947099277,0.02537313433,0.9582488853,0],"iteration":22,"passed_time":0.437571472,"remaining_time":0.5136708584,"test":[0.2768602931,0.4252640462,0.8937139387,0.9609872611,0.01304347826,0.9546279492,1]},
{"learn":[0.2813334241,0.8863314209,0.9476723682,0.02487562189,0.9556141062,0],"iteration":23,"passed_time":0.4564778842,"remaining_time":0.4945177078,"test":[0.2776132711,0.424770259,0.8937139387,0.9617834395,0.01304347826,0.9509981851,1]},
{"learn":[0.2799809891,0.8863314209,0.947143361,0.0263681592,0.957438184,0],"iteration":24,"passed_time":0.4747412065,"remaining_time":0.4747412065,"test":[0.2767803779,0.4260306823,0.8937139387,0.9609872611,0.01304347826,0.9546279492,1]},
{"learn":[0.2795059013,0.88639892,0.9470551931,0.02885572139,0.9572355087,0],"iteration":25,"passed_time":0.4937324902,"remaining_time":0.4557530679,"test":[0.2769632277,0.4259700574,0.8934102642,0.9609872611,0.01304347826,0.9528130672,1]},
{"learn":[0.2791155467,0.8865676679,0.947099277,0.02985074627,0.9576408593,0],"iteration":26,"passed_time":0.5139877898,"remaining_time":0.4378414506,"test":[0.2770982006,0.4252513446,0.8934102642,0.9609872611,0.01304347826,0.9528130672,1]},
{"learn":[0.2781038953,0.886803915,0.9474078646,0.03084577114,0.9572355087,0],"iteration":27,"passed_time":0.5317590133,"remaining_time":0.4178106533,"test":[0.2767544056,0.4254977285,0.8934102642,0.9609872611,0.01304347826,0.9528130672,1]},
{"learn":[0.2779335106,0.8867701654,0.9475401164,0.03184079602,0.9560194568,0],"iteration":28,"passed_time":0.5515165473,"remaining_time":0.3993740515,"test":[0.2767977513,0.4258668764,0.8934102642,0.9609872611,0.01304347826,0.9528130672,1]},
{"learn":[0.2775678248,0.8866014175,0.9474519485,0.03134328358,0.9556141062,0],"iteration":29,"passed_time":0.5702498027,"remaining_time":0.3801665351,"test":[0.2765451855,0.4265653318,0.8931065897,0.9609872611,0.01739130435,0.9491833031,1]},
{"learn":[0.2767887102,0.8871414107,0.9478487039,0.03383084577,0.9560194568,0],"iteration":30,"passed_time":0.588551164,"remaining_time":0.360724907,"test":[0.2772314892,0.425928386,0.8928029153,0.9609872611,0.02173913043,0.945553539,1]},
{"learn":[0.2762596272,0.8874114074,0.9478927879,0.03781094527,0.9558167815,0],"iteration":31,"passed_time":0.6077363124,"remaining_time":0.3418516757,"test":[0.2772173522,0.4259937222,0.8921955664,0.960589172,0.02173913043,0.943738657,1]},
{"learn":[0.2759590551,0.8877489031,0.9481572915,0.04129353234,0.9552087556,0],"iteration":32,"passed_time":0.6281681446,"remaining_time":0.3236017715,"test":[0.2773079405,0.4260046856,0.8924992408,0.9613853503,0.02173913043,0.941923775,1]},
{"learn":[0.2758117384,0.8878501519,0.9483777112,0.0407960199,0.9550060803,0],"iteration":33,"passed_time":0.6483085753,"remaining_time":0.3050863884,"test":[0.2771963653,0.4262270178,0.8924992408,0.9613853503,0.02173913043,0.941923775,1]},
{"learn":[0.2751391016,0.8876476544,0.9479368718,0.03781094527,0.9570328334,0],"iteration":34,"passed_time":0.6683871762,"remaining_time":0.286451647,"test":[0.2767659709,0.4271120571,0.8931065897,0.9609872611,0.02173913043,0.9473684211,1]},
{"learn":[0.2748704668,0.8875801552,0.9478927879,0.03930348259,0.9562221321,0],"iteration":35,"passed_time":0.6874589967,"remaining_time":0.2673451654,"test":[0.2768364819,0.4274506172,0.8921955664,0.960589172,0.02173913043,0.943738657,1]},
{"learn":[0.2744865789,0.8878839015,0.9480250397,0.04278606965,0.9560194568,0],"iteration":36,"passed_time":0.7069210054,"remaining_time":0.2483776505,"test":[0.2769951932,0.4273410673,0.8924992408,0.9609872611,0.02173913043,0.943738657,1]},
{"learn":[0.2741277066,0.8880863989,0.9481132075,0.04626865672,0.9554114309,0],"iteration":37,"passed_time":0.7261925232,"remaining_time":0.2293239547,"test":[0.2769120599,0.4277683877,0.8921955664,0.9609872611,0.02173913043,0.941923775,1]},
{"learn":[0.2736043651,0.888322646,0.9481132075,0.04776119403,0.9562221321,0],"iteration":38,"passed_time":0.7439775379,"remaining_time":0.2098398184,"test":[0.2771557492,0.4268337159,0.8915882174,0.9609872611,0.02608695652,0.9364791289,1]},
{"learn":[0.2729682831,0.8886263922,0.9483336272,0.05024875622,0.9560194568,0],"iteration":39,"passed_time":0.7644458262,"remaining_time":0.1911114565,"test":[0.277751615,0.4266930465,0.8921955664,0.9613853503,0.02608695652,0.9382940109,1]},
{"learn":[0.2724787812,0.8887276409,0.9485540469,0.05124378109,0.9552087556,0],"iteration":40,"passed_time":0.7832599933,"remaining_time":0.1719351205,"test":[0.2780237974,0.4264192472,0.8921955664,0.9609872611,0.02608695652,0.9401088929,1]},
{"learn":[0.2720880198,0.888963888,0.948465879,0.05572139303,0.9552087556,0],"iteration":41,"passed_time":0.8029339077,"remaining_time":0.152939792,"test":[0.2779618838,0.426655895,0.8918918919,0.9609872611,0.01739130435,0.941923775,1]},
{"learn":[0.2717625601,0.8891326358,0.9485981308,0.05621890547,0.9554114309,0],"iteration":42,"passed_time":0.8240952842,"remaining_time":0.1341550463,"test":[0.2782248166,0.4266124988,0.8915882174,0.960589172,0.01739130435,0.941923775,1]},
{"learn":[0.271483564,0.8890651367,0.9485981308,0.05572139303,0.9552087556,0],"iteration":43,"passed_time":0.8437753223,"remaining_time":0.1150602712,"test":[0.2783969491,0.4264583504,0.8918918919,0.9609872611,0.01739130435,0.941923775,1]},
{"learn":[0.2705659869,0.8890988863,0.948465879,0.0592039801,0.9546007296,0],"iteration":44,"passed_time":0.861466758,"remaining_time":0.09571852867,"test":[0.2785505236,0.4261001639,0.8915882174,0.9609872611,0.01739130435,0.9401088929,1]},
{"learn":[0.2700996485,0.8891663854,0.9484217951,0.0592039801,0.9552087556,0],"iteration":45,"passed_time":0.8828590393,"remaining_time":0.07677035124,"test":[0.2785392461,0.4263688298,0.8909808685,0.9609872611,0.02173913043,0.9346642468,1]},
{"learn":[0.269641306,0.889200135,0.9485981308,0.05970149254,0.9543980543,0],"iteration":46,"passed_time":0.902319756,"remaining_time":0.05759487804,"test":[0.2782862664,0.4268306615,0.8897661707,0.960589172,0.01304347826,0.9328493648,1]},
{"learn":[0.2690548864,0.8895713804,0.9487303826,0.06169154229,0.9552087556,0],"iteration":47,"passed_time":0.9221735769,"remaining_time":0.03842389904,"test":[0.2788699736,0.4266416809,0.8894624962,0.960589172,0.01304347826,0.9310344828,1]},
{"learn":[0.2684863806,0.8895038812,0.9487303826,0.06069651741,0.9552087556,0],"iteration":48,"passed_time":0.9400213373,"remaining_time":0.01918410893,"test":[0.2785121064,0.4268049547,0.8909808685,0.9613853503,0.01739130435,0.9346642468,1]},
{"learn":[0.2683888018,0.8895038812,0.9486862987,0.06119402985,0.9552087556,0],"iteration":49,"passed_time":0.9598941982,"remaining_time":0,"test":[0.278510716,0.427011545,0.8903735196,0.9613853503,0.01739130435,0.9310344828,1]}
]}